…
### Exercise 13

``` r
uoe_art %>%
  count(artist) %>%
  arrange(desc(n))
```

    ## # A tibble: 1,112 × 2
    ##    artist               n
    ##    <chr>            <int>
    ##  1 Unknown            357
    ##  2 Emma Gillies       148
    ##  3 <NA>               115
    ##  4 John Bellany        22
    ##  5 Ann F Ward          19
    ##  6 Boris Bućan         17
    ##  7 Marjorie Wallace    17
    ##  8 Zygmunt Bukowski    17
    ##  9 Gordon Bryce        16
    ## 10 William Gillon      16
    ## # … with 1,102 more rows
…
