…
``` r
dn %>%
  group_by(state) %>%
  count() %>%
  arrange(desc(n))
```

    ## # A tibble: 51 x 2
    ## # Groups:   state [51]
    ##    state     n
    ##    <chr> <int>
    ##  1 CA      403
    ##  2 TX      200
    ##  3 FL      140
    ##  4 AZ       83
    ##  5 IL       56
    ##  6 NY       56
    ##  7 WA       49
    ##  8 OH       44
    ##  9 MO       42
    ## 10 PA       40
    ## # … with 41 more rows

``` r
lq %>%
  group_by(state) %>%
  count() %>%
  arrange(desc(n))
```

    ## # A tibble: 48 x 2
    ## # Groups:   state [48]
    ##    state     n
    ##    <chr> <int>
    ##  1 TX      237
    ##  2 FL       74
    ##  3 CA       56
    ##  4 GA       41
    ##  5 TN       30
    ##  6 OK       29
    ##  7 LA       28
    ##  8 CO       27
    ##  9 NM       19
    ## 10 NY       19
    ## # … with 38 more rows

These numbers aren’t that surprising as California, Texas, and Florida
are all big states that attract a lot of tourists.

### Exercise 9

``` r
dn %>%
  count(state) %>%
  inner_join(states, by = c("state" = "abbreviation"))
```

    ## # A tibble: 51 x 4
    ##    state     n name                     area
    ##    <chr> <int> <chr>                   <dbl>
    ##  1 AK        3 Alaska               665384. 
    ##  2 AL        7 Alabama               52420. 
    ##  3 AR        9 Arkansas              53179. 
    ##  4 AZ       83 Arizona              113990. 
    ##  5 CA      403 California           163695. 
    ##  6 CO       29 Colorado             104094. 
    ##  7 CT       12 Connecticut            5543. 
    ##  8 DC        2 District of Columbia     68.3
    ##  9 DE        1 Delaware               2489. 
    ## 10 FL      140 Florida               65758. 
    ## # … with 41 more rows

### Exercise 10

``` r
dn %>%
  count(state) %>%
  inner_join(states, by = c("state" = "abbreviation")) %>%
  mutate(
    area_thousands = area/1000,
    locations_per_area_thousands = n/(area/1000)) %>%
  arrange(desc(locations_per_area_thousands))
```

    ## # A tibble: 51 x 6
    ##    state     n name                 area area_thousands locations_per_area_thou…
    ##    <chr> <int> <chr>               <dbl>          <dbl>                    <dbl>
    ##  1 DC        2 District of Col…     68.3         0.0683                   29.3  
    ##  2 RI        5 Rhode Island       1545.          1.54                      3.24 
    ##  3 CA      403 California       163695.        164.                        2.46 
    ##  4 CT       12 Connecticut        5543.          5.54                      2.16 
    ##  5 FL      140 Florida           65758.         65.8                       2.13 
    ##  6 MD       26 Maryland          12406.         12.4                       2.10 
    ##  7 NJ       10 New Jersey         8723.          8.72                      1.15 
    ##  8 NY       56 New York          54555.         54.6                       1.03 
    ##  9 IN       37 Indiana           36420.         36.4                       1.02 
    ## 10 OH       44 Ohio              44826.         44.8                       0.982
    ## # … with 41 more rows

``` r
lq %>%
  count(state) %>%
  inner_join(states, by = c("state" = "abbreviation")) %>%
  mutate(
    area_thousands = area/1000,
    locations_per_area_thousands = n/(area/1000)) %>%
  arrange(desc(locations_per_area_thousands))
```

    ## # A tibble: 48 x 6
    ##    state     n name             area area_thousands locations_per_area_thousands
    ##    <chr> <int> <chr>           <dbl>          <dbl>                        <dbl>
    ##  1 RI        2 Rhode Island    1545.           1.54                        1.29 
    ##  2 FL       74 Florida        65758.          65.8                         1.13 
    ##  3 CT        6 Connecticut     5543.           5.54                        1.08 
    ##  4 MD       13 Maryland       12406.          12.4                         1.05 
    ##  5 TX      237 Texas         268596.         269.                          0.882
    ##  6 TN       30 Tennessee      42144.          42.1                         0.712
    ##  7 GA       41 Georgia        59425.          59.4                         0.690
    ##  8 NJ        5 New Jersey      8723.           8.72                        0.573
    ##  9 MA        6 Massachusetts  10554.          10.6                         0.568
    ## 10 LA       28 Louisiana      52378.          52.4                         0.535
    ## # … with 38 more rows
…
