…
    ## [1] 12

``` r
12*28 #prediction of rows
```

    ## [1] 336

``` r
dn_lq_nc <- full_join(dn_nc, lq_nc, by = "state")
dn_lq_nc
```

    ## # A tibble: 336 x 11
    ##    address.x  city.x  state zip.x longitude.x latitude.x address.y  city.y zip.y
    ##    <chr>      <chr>   <chr> <chr>       <dbl>      <dbl> <chr>      <chr>  <chr>
    ##  1 1 Regent … Ashevi… NC    28806       -82.6       35.6 165 Hwy 1… "\nBo… 28607
    ##  2 1 Regent … Ashevi… NC    28806       -82.6       35.6 3127 Sloa… "\nCh… 28208
    ##  3 1 Regent … Ashevi… NC    28806       -82.6       35.6 4900 Sout… "\nCh… 28217
    ##  4 1 Regent … Ashevi… NC    28806       -82.6       35.6 4414 Durh… "\nDu… 27707
    ##  5 1 Regent … Ashevi… NC    28806       -82.6       35.6 1910 West… "\nDu… 27713
    ##  6 1 Regent … Ashevi… NC    28806       -82.6       35.6 1201 Lana… "\nGr… 27407
    ##  7 1 Regent … Ashevi… NC    28806       -82.6       35.6 1607 Fair… "\nCo… 28613
    ##  8 1 Regent … Ashevi… NC    28806       -82.6       35.6 191 Cresc… "\nCa… 27518
    ##  9 1 Regent … Ashevi… NC    28806       -82.6       35.6 2211 Summ… "\nRa… 27612
    ## 10 1 Regent … Ashevi… NC    28806       -82.6       35.6 1001 Aeri… "\nMo… 27560
    ## # … with 326 more rows, and 2 more variables: longitude.y <dbl>,
    ## #   latitude.y <dbl>
…
    ## [1] 237

``` r
200*237 #prediction of rows
```

    ## [1] 47400

``` r
dn_lq_tx <- full_join(dn_tx, lq_tx, by = "state")
dn_lq_tx
```

    ## # A tibble: 47,400 x 11
    ##    address.x  city.x  state zip.x longitude.x latitude.x address.y  city.y zip.y
    ##    <chr>      <chr>   <chr> <chr>       <dbl>      <dbl> <chr>      <chr>  <chr>
    ##  1 120 East … Abilene TX    79601       -99.6       32.4 3018 CatC… "\nAb… 79606
    ##  2 120 East … Abilene TX    79601       -99.6       32.4 3501 West… "\nAb… 79601
    ##  3 120 East … Abilene TX    79601       -99.6       32.4 14925 Lan… "\nAd… 75254
    ##  4 120 East … Abilene TX    79601       -99.6       32.4 909 East … "\nAl… 78516
    ##  5 120 East … Abilene TX    79601       -99.6       32.4 2400 East… "\nAl… 78332
    ##  6 120 East … Abilene TX    79601       -99.6       32.4 1220 Nort… "\nAl… 75013
    ##  7 120 East … Abilene TX    79601       -99.6       32.4 1165 Hwy … "\nAl… 76009
    ##  8 120 East … Abilene TX    79601       -99.6       32.4 880 South… "\nAl… 77511
    ##  9 120 East … Abilene TX    79601       -99.6       32.4 1708 Inte… "\nAm… 79103
    ## 10 120 East … Abilene TX    79601       -99.6       32.4 9305 East… "\nAm… 79118
    ## # … with 47,390 more rows, and 2 more variables: longitude.y <dbl>,
    ## #   latitude.y <dbl>
…
    ## [1] 6

``` r
8*6 #prediction of rows
```

    ## [1] 48

``` r
dn_lq_ma <- full_join(dn_ma, lq_ma, by = "state")
dn_lq_ma
```

    ## # A tibble: 48 x 11
    ##    address.x  city.x  state zip.x longitude.x latitude.x address.y  city.y zip.y
    ##    <chr>      <chr>   <chr> <chr>       <dbl>      <dbl> <chr>      <chr>  <chr>
    ##  1 467 Memor… Chicop… MA    01020       -72.6       42.2 131 River… "\nAn… 01810
    ##  2 467 Memor… Chicop… MA    01020       -72.6       42.2 446 South… "\nAu… 01501
    ##  3 467 Memor… Chicop… MA    01020       -72.6       42.2 23 Cummin… "\nSo… 02145
    ##  4 467 Memor… Chicop… MA    01020       -72.6       42.2 24 Beaver… "\nMi… 01757
    ##  5 467 Memor… Chicop… MA    01020       -72.6       42.2 100 Congr… "\nSp… 01104
    ##  6 467 Memor… Chicop… MA    01020       -72.6       42.2 478 Main … "\nSt… 01518
    ##  7 152 Endic… Danvers MA    01923       -70.9       42.5 131 River… "\nAn… 01810
    ##  8 152 Endic… Danvers MA    01923       -70.9       42.5 446 South… "\nAu… 01501
    ##  9 152 Endic… Danvers MA    01923       -70.9       42.5 23 Cummin… "\nSo… 02145
    ## 10 152 Endic… Danvers MA    01923       -70.9       42.5 24 Beaver… "\nMi… 01757
    ## # … with 38 more rows, and 2 more variables: longitude.y <dbl>,
    ## #   latitude.y <dbl>
…
    ## [1] 56

``` r
403*56 #prediction of rows
```

    ## [1] 22568

``` r
dn_lq_ca <- full_join(dn_ca, lq_ca, by = "state")
dn_lq_ca
```

    ## # A tibble: 22,568 x 11
    ##    address.x  city.x  state zip.x longitude.x latitude.x address.y  city.y zip.y
    ##    <chr>      <chr>   <chr> <chr>       <dbl>      <dbl> <chr>      <chr>  <chr>
    ##  1 14240 Us … Adelan… CA    92301       -117.       34.5 1752 Clem… "\nAn… 92802
    ##  2 14240 Us … Adelan… CA    92301       -117.       34.5 8858 Spec… "\nBa… 93308
    ##  3 14240 Us … Adelan… CA    92301       -117.       34.5 3232 Rive… "\nBa… 93308
    ##  4 14240 Us … Adelan… CA    92301       -117.       34.5 920 Unive… "\nBe… 94710
    ##  5 14240 Us … Adelan… CA    92301       -117.       34.5 3 Centerp… "\nLa… 90623
    ##  6 14240 Us … Adelan… CA    92301       -117.       34.5 1771 Rese… "\nDa… 95618
    ##  7 14240 Us … Adelan… CA    92301       -117.       34.5 6275 Dubl… "\nDu… 94568
    ##  8 14240 Us … Adelan… CA    92301       -117.       34.5 316 Pittm… "\nFa… 94534
    ##  9 14240 Us … Adelan… CA    92301       -117.       34.5 190 N. 10… "\nFo… 93625
    ## 10 14240 Us … Adelan… CA    92301       -117.       34.5 46200 Lan… "\nFr… 94538
    ## # … with 22,558 more rows, and 2 more variables: longitude.y <dbl>,
    ## #   latitude.y <dbl>
…
